{
    "Cq": 3.8319e-13,
    "Cgamma": 9.846e-05,
    "Erest": 510998.9499961642,
    "length": 91174.1174166,
    "I2": 0.00060404,
    "I6": 0.0,
    "I3": 5.80708315301e-08,
    "Egain": 0.0,
    "mode": "w",
    "Etot": 80000000000.0,
    "sigma_z": 0.00355,
    "alpha": 1.49e-05,
    "sigma_e": 0.00069,
    "epsn_x": 10e-6,
    "epsn_y": 10e-6,
    "dpt": 0.035427,
    "Q_x": 278.225,
    "Q_y": 277.29,
    "I5": 5.21277816e-11
}